{
	"swagger": "2.0",
	"info": {
		"title": "title",
		"description": "description",
		"termsOfService": "termsOfService",
		"contact": {
			"name": "Socheat KHAUV",
			"url": "https://www.linkedin.com/in/socheatkhauv/",
			"email": "pkayjava@gmail.com"
		},
		"license": {
			"name": "Apache 2.0",
			"url": "http://www.apache.org/licenses/LICENSE-2.0.html"
		},
		"version": "1.0.0.0-SNAPSHOT"
	},
	"host": "host",
	"basePath": "/basePath",
	"schemes": [
		"http",
		"https",
		"ws",
		"wss"
	],
	"consumes": [
		"application/json; charset=utf-8",
		"application/json",
		"text/xml; charset=utf-8",
		"text/xml"
	],
	"produces": [
		"application/json; charset=utf-8",
		"application/json",
		"text/xml; charset=utf-8",
		"text/xml"
	],
	"externalDocs": {
		"description": "Find more info here",
		"url": "https://swagger.io"
	}
}